<svg width="29" height="14" viewBox="0 0 29 14" fill="none" xmlns="http://www.w3.org/2000/svg">
<path d="M27.937 3.1713C28.5839 2.65379 28.6888 1.70985 28.1713 1.06296C27.6538 0.416065 26.7099 0.311182 26.063 0.828697L27.937 3.1713ZM14.5 12L13.563 13.1713C14.1108 13.6096 14.8892 13.6096 15.437 13.1713L14.5 12ZM2.93704 0.828696C2.29015 0.311181 1.34621 0.416063 0.828697 1.06296C0.311183 1.70985 0.416065 2.65379 1.06296 3.1713L2.93704 0.828696ZM26.063 0.828697L13.563 10.8287L15.437 13.1713L27.937 3.1713L26.063 0.828697ZM15.437 10.8287L2.93704 0.828696L1.06296 3.1713L13.563 13.1713L15.437 10.8287Z" fill="white"/>
</svg>
