<svg width="17" height="13" viewBox="0 0 17 13" fill="none" xmlns="http://www.w3.org/2000/svg">
<path fill-rule="evenodd" clip-rule="evenodd" d="M15.7426 6.99093C16.219 6.59128 16.219 5.85839 15.7426 5.45874L9.51695 0.235638C8.86623 -0.310286 7.87422 0.153196 7.87422 1.00259V4.01271C1.09202 4.422 -0.206443 8.5719 0.025307 10.6576C2.13106 7.87061 5.58655 7.90098 7.87422 8.19793V11.4471C7.87422 12.2965 8.86623 12.76 9.51695 12.214L15.7426 6.99093Z" fill="#7263F5"/>
</svg>
