<svg width="30" height="30" viewBox="0 0 30 30" fill="none" xmlns="http://www.w3.org/2000/svg">
<rect x="1" y="1" width="28" height="28" rx="5" stroke="#7263F5" stroke-width="2"/>
<path d="M15 7.5C10 7.5 5.73 10.61 4 15C5.73 19.39 10 22.5 15 22.5C20 22.5 24.27 19.39 26 15C24.27 10.61 20 7.5 15 7.5ZM15 20C12.24 20 7.5 17.76 7.5 15C7.5 12.24 12.24 10 15 10C17.76 10 22.5 12.24 22.5 15C22.5 17.76 17.76 20 15 20ZM15 12C13.34 12 12 13.34 12 15C12 16.66 13.34 18 15 18C16.66 18 18 16.66 18 15C18 13.34 16.66 12 15 12Z" fill="#7263F5"/>
</svg>
